Take Home Exercise 3 – IS415 - Xu Haiyang
…
print(farms)

# A tibble: 63 × 61
   `Cities, provincies` `2012 Total` `2012 Cultivation farm`
   <chr>                       <dbl>                   <dbl>
 1 Ha Noi                       1233                      11
 2 Vinh Phuc                     508                       0
 3 Bac Ninh                       74                       0
 4 Quang Ninh                    141                       4
 5 Hai Duong                     506                       3
 6 Hai Phong                     421                       1
 7 Hung Yen                      353                       4
 8 Thai Binh                     600                       4
 9 Ha Nam                        240                       6
10 Nam Dinh                      366                       2
# ℹ 53 more rows
# ℹ 58 more variables: `2012 Livestock farm` <dbl>, `2012 Fishing farm` <dbl>,
#   `2012 Others(*)` <dbl>, `2013 Total` <dbl>, `2013 Cultivation farm` <dbl>,
#   `2013 Livestock farm` <dbl>, `2013 Fishing farm` <dbl>,
#   `2013 Others(*)` <dbl>, `2014 Total` <dbl>, `2014 Cultivation farm` <dbl>,
#   `2014 Livestock farm` <dbl>, `2014 Fishing farm` <dbl>,
#   `2014 Others(*)` <dbl>, `2015 Total` <dbl>, …
…
print(enterprise)

# A tibble: 63 × 9
   `Cities, provincies` `2016` `2017` `2018` `2019` `2020` `2021` `2022` `2023`
   <chr>                 <dbl>  <dbl>  <dbl>  <dbl>  <dbl>  <dbl>  <dbl>  <dbl>
 1 Ha Noi                22663  24545  25231  27711  26135  24026  29720  31512
 2 Vinh Phuc               857   1250   1145   1194   1249   1214   1377   1523
 3 Bac Ninh               1660   2046   2041   2405   2390   2368   2700   3473
 4 Quang Ninh             1254   1593   1654   1605   1456   1455   1643   1689
 5 Hai Duong              1213   1509   1549   1695   1600   1425   1579   1884
 6 Hai Phong              2568   2979   3145   2943   2867   3034   3294   3523
 7 Hung Yen                903   1311   1185   1194   1153   1331   1364   1594
 8 Thai Binh               631    776    825    890    714    847   1130   1245
 9 Ha Nam                  481    628    596    684    682    666    796    771
10 Nam Dinh                675    799    818    796    794    906   1088   1283
# ℹ 53 more rows
…
