IS415 - Xu Haiyang - Take-Home Exercise 1:Geospatial Analytics for Social Good: Application of Spatial and Spatio-temporal Point Patterns Analysis to discover the geographical distribution of Armed Co
…
Rows: 51553 Columns: 31
── Column specification ────────────────────────────────────────────────────────
Delimiter: ","
chr (20): event_id_cnty, event_date, disorder_type, event_type, sub_event_ty...
dbl (11): year, time_precision, inter1, inter2, interaction, iso, latitude, ...

ℹ Use `spec()` to retrieve the full column specification for this data.
ℹ Specify the column types or set `show_col_types = FALSE` to quiet this message.

The dataset is read into R using the read_csv() function, which imports it as a data frame for further processing.

list(ACLED)

[[1]]
# A tibble: 51,553 × 31
   event_id_cnty event_date    year time_precision disorder_type      event_type
   <chr>         <chr>        <dbl>          <dbl> <chr>              <chr>     
 1 MMR64313      30 June 2024  2024              1 Political violence Battles   
 2 MMR64320      30 June 2024  2024              1 Political violence Battles   
 3 MMR64321      30 June 2024  2024              1 Political violence Battles   
 4 MMR64322      30 June 2024  2024              1 Strategic develop… Strategic…
 5 MMR64323      30 June 2024  2024              1 Political violence Battles   
 6 MMR64324      30 June 2024  2024              1 Strategic develop… Strategic…
 7 MMR64325      30 June 2024  2024              1 Political violence Battles   
 8 MMR64326      30 June 2024  2024              1 Political violence Battles   
 9 MMR64328      30 June 2024  2024              1 Political violence Battles   
10 MMR64330      30 June 2024  2024              1 Political violence Battles   
# ℹ 51,543 more rows
# ℹ 25 more variables: sub_event_type <chr>, actor1 <chr>, assoc_actor_1 <chr>,
#   inter1 <dbl>, actor2 <chr>, assoc_actor_2 <chr>, inter2 <dbl>,
#   interaction <dbl>, civilian_targeting <chr>, iso <dbl>, region <chr>,
#   country <chr>, admin1 <chr>, admin2 <chr>, admin3 <chr>, location <chr>,
#   latitude <dbl>, longitude <dbl>, geo_precision <dbl>, source <chr>,
#   source_scale <chr>, notes <chr>, fatalities <dbl>, tags <chr>, …
…
